sample-id	id_biosample	id_sra	id_sra_fetch	run_id
10317.000012210	4191309	ERS920660	1955867	ERR1089727
10317.000012209	4188830	ERS918173	1914484	ERR1075478
10317.000012198	4188503	ERS917820	1914150	ERR1075126
10317.000065822	6445783	ERS1566850	3747742	ERR1854795
10317.000012134	4188493	ERS917810	1914140	ERR1075730
10317.000012105	4188490	ERS917807	1914137	ERR1075113
10317.000012092	4188488	ERS917805	1914135	ERR1075111
10317.000012090	4188487	ERS917804	1914134	ERR1075726
10317.000012089	4188486	ERS917803	1914133	ERR1075109
10317.000049875	5436586	ERS1265481	3736915	ERR1844645
10317.000012065	4188481	ERS917798	1914128	ERR1075104
10317.000012059	4191293	ERS920644	1917022	ERR1078124
10317.000012005	4188469	ERS917786	1914116	ERR1075092
10317.000012004	4188468	ERS917785	1914115	ERR1075091
10317.000011945	4191279	ERS920630	1917006	ERR1078108
10317.000011940	4188460	ERS917777	1914107	ERR1075083
10317.000012254	4188512	ERS917829	1914159	ERR1075135
10317.000013139	4191372	ERS920723	1917105	ERR1078207
10317.000013082	4189055	ERS918404	1914717	ERR1075754
10317.000067788	7497118	ERS1865683	4376152	ERR2092300
10317.000013007	4188556	ERS917873	1914203	ERR1075179
10317.000012993	4188551	ERS917868	1914198	ERR1075174
10317.000012983	4191350	ERS920701	1917083	ERR1078185
10317.000065806	7354099	ERS1822007	4280180	ERR2032875
10317.000012974	4188546	ERS917863	1914193	ERR1075744
10317.000012899	4188533	ERS917850	1956383	ERR1090243
10317.000012887	4188532	ERS917849	1914179	ERR1075739
10317.000065808	6445774	ERS1566841	3747733	ERR1854786
10317.000065823	7354105	ERS1822013	4280186	ERR2032881
10317.000012692	6367021	ERS1564087	3737535	ERR1845312
10317.000012663	6367019	ERS1564085	3737533	ERR1845310
10317.000012352	4188526	ERS917843	1914173	ERR1075149
10317.000037568	4478317	ERS1052843	2213028	ERR1250139
10317.000011324	4189930	ERS919280	1915608	ERR1076657
10317.000010441	6371146	ERS1566183	3742189	ERR1852460
10317.000010436	6366960	ERS1564026	3737474	ERR1845251
10317.000010303	4188279	ERS917564	1913921	ERR1074871
10317.000010236	4188275	ERS917560	1913917	ERR1074867
10317.000001285	4186195	ERS914813	1911756	ERR1072699
10317.000017107	4213240	ERS940039	1956460	ERR1090320
10317.000017103	4213236	ERS940035	1956456	ERR1090316
10317.000016715	4190364	ERS919714	1916048	ERR1077098
10317.000009685	4188073	ERS917013	1913715	ERR1074633
10317.000002482	4186413	ERS915031	1911974	ERR1072917
10317.000002481	4186412	ERS915030	1911973	ERR1072916
10317.000016716	4190365	ERS919715	1916049	ERR1077099
10317.000036160	4478208	ERS1052734	2212919	ERR1250030
10317.000027715	4213571	ERS940370	1956797	ERR1090657
10317.000036935	4478284	ERS1052810	2649857	ERR1458888
10317.000084192	8576637	ERS2212647	5143903	ERR2308798
10317.000032639	4478929	ERS1054020	2214034	ERR1250559
10317.000036144	4565121	ERS1088265	2348155	ERR1316008
10317.000100394	9657906	ERS2608600	5964601	ERR2698041
10317.000033395	5158656	ERS1164463	2559115	ERR1417526
10317.000084665	8576786	ERS2212796	5144052	ERR2308947
10317.000084658	8576784	ERS2212794	5144050	ERR2308945
10317.000046257	5436528	ERS1265423	2840204	ERR1545951
10317.000084671	8576788	ERS2212798	5144054	ERR2308949
10317.000084288	8576665	ERS2212675	5143931	ERR2308826
10317.000084680	8576794	ERS2212804	5144060	ERR2308955
10317.000068467	8614352	ERS2214362	5162459	ERR2318154
10317.000071611	8569502	ERS2210216	5134389	ERR2306168
10317.000076642	9653518	ERS2606914	10592453	ERR4019371
10317.000099022	14621356	ERS4425294	10593972	ERR4020503
10317.000082562	8577162	ERS2213288	5144429	ERR2309429
10317.000084676	8576791	ERS2212801	5144057	ERR2308952
10317.000072606	8728615	ERS2303248	5245102	ERR2404976
10317.000071603	8569499	ERS2210213	5134386	ERR2306165
10317.000071932	9541323	ERS2483289	5840649	ERR2579869
10317.000028961	4564975	ERS1088119	2348008	ERR1315861
10317.000047186	5436553	ERS1265448	3735242	ERR1841701
10317.000084351	8576689	ERS2212699	5143955	ERR2308850
10317.000027672	6364823	ERS1561256	3723042	ERR1843454
10317.000020594	4477911	ERS1052438	2212549	ERR1249660
10317.000071613	8577059	ERS2213185	5144326	ERR2309326
10317.000071600	8569498	ERS2210212	5134385	ERR2306164
10317.000058425	6445702	ERS1566769	3747661	ERR1854714
10317.000058463	6445719	ERS1566786	3747678	ERR1854731
10317.000001294	4186198	ERS914816	1911759	ERR1072702
10317.000015265	4190039	ERS919389	1915717	ERR1076773
10317.000015264	4190038	ERS919388	1915716	ERR1076772
10317.000007308	7497365	ERS1865930	4376399	ERR2092547
10317.000005771	4187824	ERS916764	1913466	ERR1074379
10317.000005725	4187420	ERS915997	1913008	ERR1073903
10317.000001660	4186288	ERS914906	1911849	ERR1072792
10317.000001331	4186585	ERS915203	1912146	ERR1073089
10317.000010327	6366943	ERS1564009	3737457	ERR1845234
10317.000060228	8614699	ERS2215063	5162829	ERR2319389
10317.000007316	7497368	ERS1865933	4376402	ERR2092550
10317.000028223	4213931	ERS940730	2212665	ERR1249776
10317.000047151	6365612	ERS1561869	3735977	ERR1842295
10317.000039818	4565168	ERS1088312	2348202	ERR1316055
10317.000079154	9653529	ERS2606925	5960128	ERR2696917
10317.000007313	6366880	ERS1563946	3737394	ERR1845171
10317.000028164	4916061	ERS1134616	2486413	ERR1389647
10317.000052033	8568897	ERS2203071	5125243	ERR2303845
10317.000023638	6367422	ERS1564489	3737955	ERR1845810
10317.000029208	4213640	ERS940439	1956866	ERR1090726
10317.000097663	9657767	ERS2608461	5964462	ERR2697902
10317.000090166	8729362	ERS2303652	5245510	ERR2405384
10317.000058834	8577271	ERS2213614	5144986	ERR2314058
10317.000058396	9653060	ERS2606443	5959657	ERR2696441
10317.000060004	7439207	ERS1846464	4337312	ERR2056951
10317.000058343	6367689	ERS1564756	3738234	ERR1846089
10317.000022233	4478880	ERS1053971	2213947	ERR1250472
10317.000075933	9653092	ERS2606475	5959691	ERR2696475
10317.000046336	6365602	ERS1561859	3735964	ERR1842282
10317.000031057	4214595	ERS941394	1957845	ERR1091681
10317.000103788	14618744	ERS4423902	10592342	ERR4019260
10317.000023589	6367415	ERS1564482	3737948	ERR1845803
10317.000053417	6365856	ERS1562113	3736237	ERR1842554
10317.000068549	7496902	ERS1865417	4375918	ERR2092083
10317.000062166	8614282	ERS2214292	5162388	ERR2318083
10317.000049981	6365684	ERS1561941	3736060	ERR1842378
10317.000047724	6353181	ERS1562606	3723329	ERR1843716
10317.000047610	6365645	ERS1561902	3736015	ERR1842333
10317.000046352	5709923	ERS1305485	3047680	ERR1597097
10317.000076510	8945546	ERS2409232	5424340	ERR2523956
10317.000050211	6367616	ERS1564683	3738159	ERR1846014
10317.000039921	4565187	ERS1088331	2348221	ERR1316074
10317.000073403	8614457	ERS2214467	5162566	ERR2318261
10317.000050310	5710063	ERS1305625	3047824	ERR1597237
10317.000071532	8577055	ERS2213181	5144322	ERR2309322
10317.000038353	4916265	ERS1134820	4375696	ERR2091861
10317.000092861	9657623	ERS2608317	5964318	ERR2697758
10317.000065413	8614325	ERS2214335	5162431	ERR2318126
10317.000084477	8576733	ERS2212743	5143999	ERR2308894
10317.000059888	7496808	ERS1865323	4375824	ERR2091989
10317.000058914	7496789	ERS1865304	4375805	ERR2091970
10317.000094687	9653294	ERS2606677	5959895	ERR2696678
10317.000054004	6365879	ERS1562136	3736260	ERR1842577
10317.000070817	8945377	ERS2409171	5424279	ERR2523895
10317.000071845	8945380	ERS2409174	5424282	ERR2523898
10317.000103679	14619532	ERS4424387	10592842	ERR4019753
10317.000022402	8614579	ERS2214943	5162692	ERR2319252
10317.000031890	4916101	ERS1134656	2486453	ERR1389687
10317.000031333	4478106	ERS1052632	2212801	ERR1249912
10317.000076201	14618625	ERS4423783	10592165	ERR4019113
10317.000030431	6367483	ERS1564550	3738016	ERR1845871
10317.000028457	7496665	ERS1865180	5144884	ERR2313956
10317.000028365	4916069	ERS1134624	2486421	ERR1389655
10317.000028364	4916068	ERS1134623	2486420	ERR1389654
10317.000028126	5158545	ERS1164352	2559002	ERR1417415
10317.000029513	4478915	ERS1054006	2214017	ERR1250542
10317.000033084	4565104	ERS1088248	2348138	ERR1315991
10317.000076509	8945545	ERS2409231	5424339	ERR2523955
10317.000097817	9657827	ERS2608521	5964522	ERR2697962
10317.000033360	7496679	ERS1865194	4375688	ERR2091853
10317.000076659	8728686	ERS2303319	5245173	ERR2405047
10317.000066687	8614720	ERS2215084	5162858	ERR2319418
